﻿{
  "dependencies": {
    "Microsoft.Azure.Devices.Client": "1.2.5",
    "Microsoft.Data.SQLite": "1.1.0",
    "Microsoft.NETCore.UniversalWindowsPlatform": "5.2.2",
    "WindowsAzure.Storage": "8.1.1"
  },
  "frameworks": {
    "uap10.0": {}
  },
  "runtimes": {
    "win10-arm": {},
    "win10-arm-aot": {},
    "win10-x86": {},
    "win10-x86-aot": {},
    "win10-x64": {},
    "win10-x64-aot": {}
  }
}